7th Country Reporting – CR-7 GET technical workflow
…
GET_L3.wide <- EDD.GET_names %>%
  group_by(Realm_GETL1, GET_L3.code_text, RLE_2025) %>%
  summarise(Count = n_distinct(Code), .groups = "drop") %>%
  pivot_wider(
    names_from = RLE_2025,
    values_from = Count,
    values_fill = 0
  )

GET_L3.wide

# A tibble: 36 × 7
   Realm_GETL1        GET_L3.code_text                CR    EN    LC    VU    NT
   <chr>              <chr>                        <int> <int> <int> <int> <int>
 1 Estuarine          FM1.2: Permanently open riv…     2    13     2    12     0
 2 Estuarine          FM1.3: Intermittently close…     0     4     2     8     0
 3 Freshwater_River   F1.1: Permanent upland stre…     1     1     1     1     0
 4 Freshwater_River   F1.2: Permanent lowland riv…     1     1     1     1     0
 5 Freshwater_River   F1.4: Seasonal upland strea…     1     1     1     1     0
 6 Freshwater_River   F1.5: Seasonal lowland rive…     1     1     1     1     0
 7 Freshwater_Wetland F2.3: Seasonal freshwater l…     1     1     1     1     0
 8 Freshwater_Wetland F2.5: Ephemeral freshwater …     1     1     1     1     0
 9 Freshwater_Wetland TF1.3: Permanent marshes         1     1     1     1     0
10 Freshwater_Wetland TF1.4: Seasonal floodplain …     0     1     1     1     0
# ℹ 26 more rows
